^E:\_PROJECTS\WM-I-Z-S1-E6-PO_108304\WM-I-Z-S1-E6-PO_108304\MAIN.CPP
/c /I"E:\_PROJECTS\WM-I-Z-S1-E6-PO_108304\LIB\BUILD\INCLUDE" /Zi /nologo /W3 /WX- /diagnostics:column /sdl /O2 /Oi /GL /D NDEBUG /D _CONSOLE /D _UNICODE /D UNICODE /Gm- /EHsc /MD /GS /Gy /fp:precise /permissive- /Zc:wchar_t /Zc:forScope /Zc:inline /Fo"X64\RELEASE\\" /Fd"X64\RELEASE\VC142.PDB" /Gd /TP /FC E:\_PROJECTS\WM-I-Z-S1-E6-PO_108304\WM-I-Z-S1-E6-PO_108304\MAIN.CPP
^E:\_PROJECTS\WM-I-Z-S1-E6-PO_108304\WM-I-Z-S1-E6-PO_108304\MYDATA.CPP
/c /I"E:\_PROJECTS\WM-I-Z-S1-E6-PO_108304\LIB\BUILD\INCLUDE" /Zi /nologo /W3 /WX- /diagnostics:column /sdl /O2 /Oi /GL /D NDEBUG /D _CONSOLE /D _UNICODE /D UNICODE /Gm- /EHsc /MD /GS /Gy /fp:precise /permissive- /Zc:wchar_t /Zc:forScope /Zc:inline /Fo"X64\RELEASE\\" /Fd"X64\RELEASE\VC142.PDB" /Gd /TP /FC E:\_PROJECTS\WM-I-Z-S1-E6-PO_108304\WM-I-Z-S1-E6-PO_108304\MYDATA.CPP
^E:\_PROJECTS\WM-I-Z-S1-E6-PO_108304\WM-I-Z-S1-E6-PO_108304\SHOWRESULT.CPP
/c /I"E:\_PROJECTS\WM-I-Z-S1-E6-PO_108304\LIB\BUILD\INCLUDE" /Zi /nologo /W3 /WX- /diagnostics:column /sdl /O2 /Oi /GL /D NDEBUG /D _CONSOLE /D _UNICODE /D UNICODE /Gm- /EHsc /MD /GS /Gy /fp:precise /permissive- /Zc:wchar_t /Zc:forScope /Zc:inline /Fo"X64\RELEASE\\" /Fd"X64\RELEASE\VC142.PDB" /Gd /TP /FC E:\_PROJECTS\WM-I-Z-S1-E6-PO_108304\WM-I-Z-S1-E6-PO_108304\SHOWRESULT.CPP
^E:\_PROJECTS\WM-I-Z-S1-E6-PO_108304\WM-I-Z-S1-E6-PO_108304\TASK_1.CPP
/c /I"E:\_PROJECTS\WM-I-Z-S1-E6-PO_108304\LIB\BUILD\INCLUDE" /Zi /nologo /W3 /WX- /diagnostics:column /sdl /O2 /Oi /GL /D NDEBUG /D _CONSOLE /D _UNICODE /D UNICODE /Gm- /EHsc /MD /GS /Gy /fp:precise /permissive- /Zc:wchar_t /Zc:forScope /Zc:inline /Fo"X64\RELEASE\\" /Fd"X64\RELEASE\VC142.PDB" /Gd /TP /FC E:\_PROJECTS\WM-I-Z-S1-E6-PO_108304\WM-I-Z-S1-E6-PO_108304\TASK_1.CPP
^E:\_PROJECTS\WM-I-Z-S1-E6-PO_108304\WM-I-Z-S1-E6-PO_108304\TASK_2.CPP
/c /I"E:\_PROJECTS\WM-I-Z-S1-E6-PO_108304\LIB\BUILD\INCLUDE" /Zi /nologo /W3 /WX- /diagnostics:column /sdl /O2 /Oi /GL /D NDEBUG /D _CONSOLE /D _UNICODE /D UNICODE /Gm- /EHsc /MD /GS /Gy /fp:precise /permissive- /Zc:wchar_t /Zc:forScope /Zc:inline /Fo"X64\RELEASE\\" /Fd"X64\RELEASE\VC142.PDB" /Gd /TP /FC E:\_PROJECTS\WM-I-Z-S1-E6-PO_108304\WM-I-Z-S1-E6-PO_108304\TASK_2.CPP
^E:\_PROJECTS\WM-I-Z-S1-E6-PO_108304\WM-I-Z-S1-E6-PO_108304\TASK_4.CPP
/c /I"E:\_PROJECTS\WM-I-Z-S1-E6-PO_108304\LIB\BUILD\INCLUDE" /Zi /nologo /W3 /WX- /diagnostics:column /sdl /O2 /Oi /GL /D NDEBUG /D _CONSOLE /D _UNICODE /D UNICODE /Gm- /EHsc /MD /GS /Gy /fp:precise /permissive- /Zc:wchar_t /Zc:forScope /Zc:inline /Fo"X64\RELEASE\\" /Fd"X64\RELEASE\VC142.PDB" /Gd /TP /FC E:\_PROJECTS\WM-I-Z-S1-E6-PO_108304\WM-I-Z-S1-E6-PO_108304\TASK_4.CPP
