^E:\_PROJECTS\WM-I-Z-S1-E6-PO_108304\WM-I-Z-S1-E6-PO_108304\X64\RELEASE\MAIN.OBJ|E:\_PROJECTS\WM-I-Z-S1-E6-PO_108304\WM-I-Z-S1-E6-PO_108304\X64\RELEASE\MYDATA.OBJ|E:\_PROJECTS\WM-I-Z-S1-E6-PO_108304\WM-I-Z-S1-E6-PO_108304\X64\RELEASE\SHOWRESULT.OBJ|E:\_PROJECTS\WM-I-Z-S1-E6-PO_108304\WM-I-Z-S1-E6-PO_108304\X64\RELEASE\TASK_1.OBJ|E:\_PROJECTS\WM-I-Z-S1-E6-PO_108304\WM-I-Z-S1-E6-PO_108304\X64\RELEASE\TASK_2.OBJ|E:\_PROJECTS\WM-I-Z-S1-E6-PO_108304\WM-I-Z-S1-E6-PO_108304\X64\RELEASE\TASK_4.OBJ
E:\_PROJECTS\WM-I-Z-S1-E6-PO_108304\X64\RELEASE\WM-I-Z-S1-E6-PO_108304.EXE
E:\_PROJECTS\WM-I-Z-S1-E6-PO_108304\X64\RELEASE\WM-I-Z-S1-E6-PO_108304.PDB
